<svg width="133" height="48" viewBox="0 0 133 48" fill="none" xmlns="http://www.w3.org/2000/svg">
<g clip-path="url(#clip0)">
<rect x="5" y="10" width="79" height="34" fill="url(#paint0_linear)"/>
<path d="M30.128 33.144C29.4027 33.144 28.688 33.064 27.984 32.904C27.28 32.7333 26.7147 32.5147 26.288 32.248L27.2 30.168C27.5947 30.4133 28.064 30.6107 28.608 30.76C29.152 30.8987 29.6907 30.968 30.224 30.968C30.7147 30.968 31.0613 30.92 31.264 30.824C31.4773 30.7173 31.584 30.568 31.584 30.376C31.584 30.184 31.456 30.0507 31.2 29.976C30.9547 29.8907 30.56 29.8107 30.016 29.736C29.3227 29.6507 28.7307 29.5387 28.24 29.4C27.76 29.2613 27.344 29.0053 26.992 28.632C26.64 28.2587 26.464 27.736 26.464 27.064C26.464 26.5093 26.6293 26.0187 26.96 25.592C27.2907 25.1547 27.7707 24.8133 28.4 24.568C29.04 24.312 29.8027 24.184 30.688 24.184C31.3173 24.184 31.9413 24.248 32.56 24.376C33.1787 24.504 33.696 24.6853 34.112 24.92L33.2 26.984C32.432 26.5573 31.6 26.344 30.704 26.344C30.224 26.344 29.872 26.4027 29.648 26.52C29.424 26.6267 29.312 26.7707 29.312 26.952C29.312 27.1547 29.4347 27.2987 29.68 27.384C29.9253 27.4587 30.3307 27.5387 30.896 27.624C31.6107 27.7307 32.2027 27.8533 32.672 27.992C33.1413 28.1307 33.5467 28.3867 33.888 28.76C34.24 29.1227 34.416 29.6347 34.416 30.296C34.416 30.84 34.2507 31.3307 33.92 31.768C33.5893 32.1947 33.0987 32.5307 32.448 32.776C31.808 33.0213 31.0347 33.144 30.128 33.144ZM47.622 24.184C48.6887 24.184 49.5367 24.504 50.166 25.144C50.806 25.784 51.126 26.7493 51.126 28.04V33H48.086V28.536C48.086 27.928 47.9687 27.48 47.734 27.192C47.51 26.904 47.19 26.76 46.774 26.76C46.3153 26.76 45.9473 26.92 45.67 27.24C45.3927 27.56 45.254 28.0453 45.254 28.696V33H42.214V28.536C42.214 27.352 41.7767 26.76 40.902 26.76C40.4327 26.76 40.0593 26.92 39.782 27.24C39.5047 27.56 39.366 28.0453 39.366 28.696V33H36.326V24.328H39.222V25.24C39.542 24.888 39.9207 24.6267 40.358 24.456C40.806 24.2747 41.2913 24.184 41.814 24.184C42.422 24.184 42.966 24.296 43.446 24.52C43.926 24.744 44.3153 25.0853 44.614 25.544C44.9553 25.1067 45.3873 24.7707 45.91 24.536C46.4327 24.3013 47.0033 24.184 47.622 24.184ZM62.9378 24.328V33H60.0418V32.136C59.4764 32.808 58.6231 33.144 57.4818 33.144C56.6924 33.144 55.9724 32.9627 55.3218 32.6C54.6818 32.2267 54.1698 31.6987 53.7858 31.016C53.4124 30.3333 53.2258 29.544 53.2258 28.648C53.2258 27.752 53.4124 26.968 53.7858 26.296C54.1698 25.6133 54.6818 25.0907 55.3218 24.728C55.9724 24.3653 56.6924 24.184 57.4818 24.184C58.5058 24.184 59.3111 24.4827 59.8978 25.08V24.328H62.9378ZM58.1218 30.728C58.6551 30.728 59.0924 30.5467 59.4338 30.184C59.7751 29.8107 59.9458 29.2987 59.9458 28.648C59.9458 28.008 59.7751 27.5067 59.4338 27.144C59.0924 26.7813 58.6551 26.6 58.1218 26.6C57.5884 26.6 57.1511 26.7813 56.8098 27.144C56.4684 27.5067 56.2978 28.008 56.2978 28.648C56.2978 29.2987 56.4684 29.8107 56.8098 30.184C57.1511 30.5467 57.5884 30.728 58.1218 30.728ZM68.3907 25.368C68.7001 24.9733 69.1001 24.68 69.5907 24.488C70.0921 24.2853 70.6627 24.184 71.3027 24.184V26.92C71.0254 26.888 70.7961 26.872 70.6147 26.872C69.9641 26.872 69.4521 27.048 69.0787 27.4C68.7161 27.752 68.5347 28.2907 68.5347 29.016V33H65.4947V24.328H68.3907V25.368ZM78.7413 32.648C78.4853 32.808 78.1706 32.9307 77.7973 33.016C77.4346 33.1013 77.0453 33.144 76.6293 33.144C75.4986 33.144 74.6293 32.8667 74.0213 32.312C73.4239 31.7573 73.1253 30.9307 73.1253 29.832V22.392H76.1653V24.648H78.1333V26.92H76.1653V29.8C76.1653 30.12 76.2453 30.3653 76.4053 30.536C76.5653 30.7067 76.7839 30.792 77.0613 30.792C77.4133 30.792 77.7226 30.7013 77.9893 30.52L78.7413 32.648ZM81.9435 33.144C81.4315 33.144 80.9995 32.9733 80.6475 32.632C80.2955 32.2907 80.1195 31.8587 80.1195 31.336C80.1195 30.8027 80.2902 30.3707 80.6315 30.04C80.9835 29.7093 81.4208 29.544 81.9435 29.544C82.4768 29.544 82.9142 29.7093 83.2555 30.04C83.5968 30.3707 83.7675 30.8027 83.7675 31.336C83.7675 31.8587 83.5915 32.2907 83.2395 32.632C82.8982 32.9733 82.4662 33.144 81.9435 33.144Z" fill="white"/>
<path d="M91.2507 24.184C92.0401 24.184 92.7547 24.3707 93.3947 24.744C94.0454 25.1067 94.5574 25.6293 94.9307 26.312C95.3147 26.984 95.5067 27.768 95.5067 28.664C95.5067 29.56 95.3147 30.3493 94.9307 31.032C94.5574 31.704 94.0454 32.2267 93.3947 32.6C92.7547 32.9627 92.0401 33.144 91.2507 33.144C90.2374 33.144 89.4321 32.84 88.8347 32.232V36.104H85.7947V24.328H88.6907V25.192C89.2561 24.52 90.1094 24.184 91.2507 24.184ZM90.6107 30.728C91.1441 30.728 91.5814 30.5467 91.9227 30.184C92.2641 29.8107 92.4347 29.304 92.4347 28.664C92.4347 28.024 92.2641 27.5227 91.9227 27.16C91.5814 26.7867 91.1441 26.6 90.6107 26.6C90.0774 26.6 89.6401 26.7867 89.2987 27.16C88.9574 27.5227 88.7867 28.024 88.7867 28.664C88.7867 29.304 88.9574 29.8107 89.2987 30.184C89.6401 30.5467 90.0774 30.728 90.6107 30.728ZM100.896 33.144C99.8291 33.144 98.9971 32.872 98.3997 32.328C97.8131 31.7733 97.5197 30.984 97.5197 29.96V21.128H100.56V29.8C100.56 30.12 100.64 30.3653 100.8 30.536C100.97 30.7067 101.205 30.792 101.504 30.792C101.749 30.792 101.978 30.7387 102.192 30.632L102.32 32.92C101.861 33.0693 101.386 33.144 100.896 33.144ZM113.022 24.328V33H110.126V32.136C109.561 32.808 108.707 33.144 107.566 33.144C106.777 33.144 106.057 32.9627 105.406 32.6C104.766 32.2267 104.254 31.6987 103.87 31.016C103.497 30.3333 103.31 29.544 103.31 28.648C103.31 27.752 103.497 26.968 103.87 26.296C104.254 25.6133 104.766 25.0907 105.406 24.728C106.057 24.3653 106.777 24.184 107.566 24.184C108.59 24.184 109.395 24.4827 109.982 25.08V24.328H113.022ZM108.206 30.728C108.739 30.728 109.177 30.5467 109.518 30.184C109.859 29.8107 110.03 29.2987 110.03 28.648C110.03 28.008 109.859 27.5067 109.518 27.144C109.177 26.7813 108.739 26.6 108.206 26.6C107.673 26.6 107.235 26.7813 106.894 27.144C106.553 27.5067 106.382 28.008 106.382 28.648C106.382 29.2987 106.553 29.8107 106.894 30.184C107.235 30.5467 107.673 30.728 108.206 30.728ZM121.227 24.184C122.304 24.184 123.168 24.504 123.819 25.144C124.48 25.784 124.811 26.7493 124.811 28.04V33H121.771V28.536C121.771 27.352 121.296 26.76 120.347 26.76C119.824 26.76 119.403 26.9307 119.083 27.272C118.774 27.6133 118.619 28.1253 118.619 28.808V33H115.579V24.328H118.475V25.272C118.816 24.92 119.222 24.6533 119.691 24.472C120.16 24.28 120.672 24.184 121.227 24.184ZM132.904 32.648C132.648 32.808 132.333 32.9307 131.96 33.016C131.597 33.1013 131.208 33.144 130.792 33.144C129.661 33.144 128.792 32.8667 128.184 32.312C127.586 31.7573 127.288 30.9307 127.288 29.832V22.392H130.328V24.648H132.296V26.92H130.328V29.8C130.328 30.12 130.408 30.3653 130.568 30.536C130.728 30.7067 130.946 30.792 131.224 30.792C131.576 30.792 131.885 30.7013 132.152 30.52L132.904 32.648Z" fill="#11263C"/>
</g>
<defs>
<linearGradient id="paint0_linear" x1="39.2028" y1="9.88349" x2="50.2199" y2="41.1719" gradientUnits="userSpaceOnUse">
<stop stop-color="#7A9972"/>
</linearGradient>
<clipPath id="clip0">
<rect width="133" height="48" fill="white"/>
</clipPath>
</defs>
</svg>
