<svg width="24" height="24" viewBox="0 0 24 24" fill="none" xmlns="http://www.w3.org/2000/svg">
<path d="M12 22C17.5228 22 22 17.5228 22 12C22 6.47715 17.5228 2 12 2C6.47715 2 2 6.47715 2 12C2 17.5228 6.47715 22 12 22Z" stroke="url(#paint0_linear_104:993)" stroke-width="1.5" stroke-linecap="round" stroke-linejoin="round"/>
<path d="M16 12L12 8L8 12" stroke="url(#paint1_linear_104:993)" stroke-width="1.5" stroke-linecap="round" stroke-linejoin="round"/>
<path d="M12 16V8" stroke="url(#paint2_linear_104:993)" stroke-width="1.5" stroke-linecap="round" stroke-linejoin="round"/>
<defs>
<linearGradient id="paint0_linear_104:993" x1="22" y1="22" x2="13.7876" y2="-2.0287" gradientUnits="userSpaceOnUse">
<stop stop-color="#11263C"/>
</linearGradient>
<linearGradient id="paint1_linear_104:993" x1="16" y1="12" x2="15.1089" y2="6.78519" gradientUnits="userSpaceOnUse">
<stop stop-color="#11263C"/>
</linearGradient>
<linearGradient id="paint2_linear_104:993" x1="13" y1="16" x2="9.53729" y2="14.7336" gradientUnits="userSpaceOnUse">
<stop stop-color="#11263C"/>
</linearGradient>
</defs>
</svg>
